<svg xmlns="http://www.w3.org/2000/svg" width="111" height="162.573" viewBox="0 0 111 162.573">
  <g id="Logo" transform="translate(-134 -117.457)">
    <text id="DOSTU" transform="translate(134 258.03)" fill="#fff" font-size="18" font-family="Montserrat-Bold, Montserrat" font-weight="700"><tspan x="21.909" y="17">DOSTU</tspan></text>
    <g id="logo-az" transform="translate(152 117.457)">
      <g id="_2146590373680" transform="translate(0 0)">
        <g id="Group_2" data-name="Group 2" transform="translate(0 0)">
          <path id="Path_62" data-name="Path 62" d="M8391.079,8615.24v-18.26h2.161v9.107l10.074-9.107h2.9l-7.084,6.485,8.189,11.774h-2.668l-7.086-10.209-4.229,3.679v6.485h-2.256Z" transform="translate(-8380.484 -8504.672)" fill="#fff" fill-rule="evenodd"/>
          <path id="Path_63" data-name="Path 63" d="M9877.594,8566.822a8.521,8.521,0,0,1-6.486-2.716,10.412,10.412,0,0,1,0-13.706,9.217,9.217,0,0,1,13.018,0,10.366,10.366,0,0,1,0,13.706A8.52,8.52,0,0,1,9877.594,8566.822Zm0-2.117a6.227,6.227,0,0,0,4.876-2.115,8.338,8.338,0,0,0,0-10.673,6.752,6.752,0,0,0-9.8,0,8.271,8.271,0,0,0,0,10.628A6.355,6.355,0,0,0,9877.594,8564.705Z" transform="translate(-9842.069 -8455.929)" fill="#fff" fill-rule="evenodd"/>
          <path id="Path_64" data-name="Path 64" d="M11762.649,8610.905v-18.216H11773a5.771,5.771,0,0,1,3.911,1.149,4.306,4.306,0,0,1,1.333,3.4,4.548,4.548,0,0,1-.414,1.934,3.513,3.513,0,0,1-1.2,1.379,5.68,5.68,0,0,1,2.115,2.068,5.444,5.444,0,0,1,.737,2.808,5.187,5.187,0,0,1-1.609,4,6.163,6.163,0,0,1-4.324,1.471Zm2.162-10.994h8.374a3.215,3.215,0,0,0,2.115-.645,2.331,2.331,0,0,0,.734-1.885,2.629,2.629,0,0,0-.689-1.933,3.2,3.2,0,0,0-2.116-.644h-8.372v5.105Zm0,8.925h9.2a2.984,2.984,0,0,0,2.346-.922,4.066,4.066,0,0,0,0-5.013,3.041,3.041,0,0,0-2.346-.919h-9.2Z" transform="translate(-11715.853 -8500.428)" fill="#fff" fill-rule="evenodd"/>
          <path id="Path_65" data-name="Path 65" d="M7621.246,2903.123h0a.934.934,0,0,0-.919.966c-.047,19.228-15,34.776-33.488,34.776h-.046c-18.493-.046-33.443-15.64-33.443-34.822,0-22.448,13.754-39.468,28.612-54.556h0l1.2-1.2,1.884-.552,1.887,3.4,1.886-3.4,3.68,1.058-1.012-3.818L7594.8,2843l-3.312-1.978.965-3.818-3.68,1.058-1.887-3.4-1.885,3.4-3.634-1.058,1.011,3.818-3.312,1.978,3.312,1.978-.506,1.84-1.241,1.242h0c-15.18,15.364-29.165,32.751-29.211,55.935,0,20.286,15.825,36.754,35.329,36.8h.046c19.5,0,35.328-16.468,35.328-36.708A.871.871,0,0,0,7621.246,2903.123Z" transform="translate(-7549.837 -2804.42)" fill="#fff" fill-rule="evenodd"/>
          <path id="Path_66" data-name="Path 66" d="M11039.094,74.263a1.646,1.646,0,0,0,1.655-.138,29.889,29.889,0,0,0,12-28.428,1.662,1.662,0,0,0-1.884-1.472,1.55,1.55,0,0,0-.689.276,29.928,29.928,0,0,0-12.006,28.428,1.729,1.729,0,0,0,.919,1.334Z" transform="translate(-10998.874 -43.732)" fill="#fff" fill-rule="evenodd"/>
          <path id="Path_67" data-name="Path 67" d="M9291.029,4338.205a1.668,1.668,0,0,0-1.611.137,29.949,29.949,0,0,0-12,28.43,1.744,1.744,0,0,0,.965,1.333,1.665,1.665,0,0,0,1.612-.137A29.944,29.944,0,0,0,9292,4339.539,1.622,1.622,0,0,0,9291.029,4338.205Z" transform="translate(-9257.021 -4291.482)" fill="#fff" fill-rule="evenodd"/>
          <path id="Path_68" data-name="Path 68" d="M9360.448,30.406a1.612,1.612,0,0,0,2.347-.368,2.116,2.116,0,0,0,.321-.736A29.945,29.945,0,0,0,9352.261.368a1.571,1.571,0,0,0-1.61-.23,1.771,1.771,0,0,0-1.057,1.288,30.3,30.3,0,0,0,1.471,16.054A29.091,29.091,0,0,0,9360.448,30.406Z" transform="translate(-9328.234 -0.013)" fill="#fff" fill-rule="evenodd"/>
          <path id="Path_69" data-name="Path 69" d="M11025.44,4335.406a1.773,1.773,0,0,0-1.056,1.289,30.043,30.043,0,0,0,10.856,28.934,1.648,1.648,0,0,0,2.346-.368,2.174,2.174,0,0,0,.322-.736,29.946,29.946,0,0,0-10.856-28.934A1.674,1.674,0,0,0,11025.44,4335.406Z" transform="translate(-10985.038 -4288.729)" fill="#fff" fill-rule="evenodd"/>
          <path id="Path_70" data-name="Path 70" d="M7451.7,1958.79a26.92,26.92,0,0,0,15.411,2.162,1.727,1.727,0,0,0,1.425-1.978,2.049,2.049,0,0,0-.275-.736,27.875,27.875,0,0,0-27.37-12.466,1.7,1.7,0,0,0-1.288,1.012,1.856,1.856,0,0,0,.138,1.7A28.447,28.447,0,0,0,7451.7,1958.79Z" transform="translate(-7439.083 -1924.579)" fill="#fff" fill-rule="evenodd"/>
          <path id="Path_71" data-name="Path 71" d="M11590.461,3781.631a27.294,27.294,0,0,0-15.406-2.162,1.7,1.7,0,0,0-1.291,1.012,1.856,1.856,0,0,0,.14,1.7,27.873,27.873,0,0,0,27.321,12.513,1.728,1.728,0,0,0,1.428-1.979,1.981,1.981,0,0,0-.276-.736A28.165,28.165,0,0,0,11590.461,3781.631Z" transform="translate(-11528.853 -3738.588)" fill="#fff" fill-rule="evenodd"/>
          <path id="Path_72" data-name="Path 72" d="M7421.109,3786.029a28.492,28.492,0,0,0,12.374-9.752,1.766,1.766,0,0,0-1.012-2.76,27.7,27.7,0,0,0-27.829,11.27,1.8,1.8,0,0,0,.322,2.438,1.565,1.565,0,0,0,.688.322A27.341,27.341,0,0,0,7421.109,3786.029Z" transform="translate(-7404.306 -3732.498)" fill="#fff" fill-rule="evenodd"/>
          <path id="Path_73" data-name="Path 73" d="M11602.339,2030.965a1.691,1.691,0,0,0-1.242-1.058,27.7,27.7,0,0,0-27.828,11.27,1.766,1.766,0,0,0,1.01,2.76,27.759,27.759,0,0,0,27.879-11.316A1.927,1.927,0,0,0,11602.339,2030.965Z" transform="translate(-11528.173 -2007.609)" fill="#fff" fill-rule="evenodd"/>
        </g>
      </g>
    </g>
  </g>
</svg>
