<svg xmlns="http://www.w3.org/2000/svg" width="50" height="23" viewBox="0 0 50 23">
  <g id="Group_28" data-name="Group 28" transform="translate(-305 -30)">
    <rect id="Rectangle_38" data-name="Rectangle 38" width="40" height="5" rx="2.5" transform="translate(305 30)" fill="#fff"/>
    <rect id="hamburger" width="50" height="5" rx="2.5" transform="translate(305 39)" fill="#fff"/>
    <rect id="Rectangle_39" data-name="Rectangle 39" width="40" height="5" rx="2.5" transform="translate(305 48)" fill="#fff"/>
  </g>
</svg>
